2019-07-11T20:18:35.9782119-03:00 0HLO6AO96OR1I:00000001 [INF] Request starting HTTP/1.1 GET http://localhost:64797/   (ca22a1cb)
2019-07-11T20:18:45.1470989-03:00 0HLO6AO96OR1I:00000001 [INF] Executing action method "AVP.Controllers.ErrorsController.Error (AVP)" with arguments (["404"]) - ModelState is Valid (ba7f4ac2)
2019-07-11T20:18:46.4122515-03:00 0HLO6AO96OR1I:00000001 [INF] Executing ObjectResult, writing value "Microsoft.AspNetCore.Mvc.ControllerContext". (4e968210)
2019-07-11T20:18:49.7341499-03:00 0HLO6AO96OR1I:00000001 [INF] Executed action "AVP.Controllers.ErrorsController.Error (AVP)" in 4404.8309ms (afa2e885)
2019-07-11T20:18:50.7921362-03:00 0HLO6AO96OR1I:00000001 [INF] Request finished in 16150.6589ms 404 application/json; charset=utf-8 (791a596a)
2019-07-11T20:18:52.2787270-03:00 0HLO6AO96OR1I:00000002 [INF] Request starting HTTP/1.1 GET http://localhost:64797/favicon.ico   (ca22a1cb)
2019-07-11T20:18:53.2600034-03:00 0HLO6AO96OR1I:00000002 [INF] Executing action method "AVP.Controllers.ErrorsController.Error (AVP)" with arguments (["404"]) - ModelState is Valid (ba7f4ac2)
2019-07-11T20:18:53.5725767-03:00 0HLO6AO96OR1I:00000002 [INF] Executing ObjectResult, writing value "Microsoft.AspNetCore.Mvc.ControllerContext". (4e968210)
2019-07-11T20:18:53.8352346-03:00 0HLO6AO96OR1I:00000002 [INF] Executed action "AVP.Controllers.ErrorsController.Error (AVP)" in 899.8899ms (afa2e885)
2019-07-11T20:18:54.1604856-03:00 0HLO6AO96OR1I:00000002 [INF] Request finished in 2582.7804ms 404 application/json; charset=utf-8 (791a596a)
2019-07-11T20:22:08.4288781-03:00 0HLO6AO96OR1J:00000001 [INF] Request starting HTTP/1.1 GET http://localhost:64797/   (ca22a1cb)
2019-07-11T20:22:08.4350364-03:00 0HLO6AO96OR1J:00000001 [INF] Executing action method "AVP.Controllers.ErrorsController.Error (AVP)" with arguments (["404"]) - ModelState is Valid (ba7f4ac2)
2019-07-11T20:22:08.4609518-03:00 0HLO6AO96OR1J:00000001 [INF] Executing ObjectResult, writing value "Microsoft.AspNetCore.Mvc.ControllerContext". (4e968210)
2019-07-11T20:22:08.4687498-03:00 0HLO6AO96OR1J:00000001 [INF] Executed action "AVP.Controllers.ErrorsController.Error (AVP)" in 32.3838ms (afa2e885)
2019-07-11T20:22:08.4836948-03:00 0HLO6AO96OR1J:00000001 [INF] Request finished in 61.2086ms 404 application/json; charset=utf-8 (791a596a)
2019-07-11T20:22:08.4944008-03:00 0HLO6AO96OR1J:00000002 [INF] Request starting HTTP/1.1 GET http://localhost:64797/   (ca22a1cb)
2019-07-11T20:22:08.5033078-03:00 0HLO6AO96OR1J:00000002 [INF] Executing action method "AVP.Controllers.ErrorsController.Error (AVP)" with arguments (["404"]) - ModelState is Valid (ba7f4ac2)
2019-07-11T20:22:08.5122965-03:00 0HLO6AO96OR1J:00000002 [INF] Executing ObjectResult, writing value "Microsoft.AspNetCore.Mvc.ControllerContext". (4e968210)
2019-07-11T20:22:08.5348154-03:00 0HLO6AO96OR1J:00000002 [INF] Executed action "AVP.Controllers.ErrorsController.Error (AVP)" in 33.6154ms (afa2e885)
2019-07-11T20:22:08.5461997-03:00 0HLO6AO96OR1J:00000002 [INF] Request finished in 49.0942ms 404 application/json; charset=utf-8 (791a596a)
2019-07-11T20:22:08.7912504-03:00 0HLO6AO96OR1J:00000003 [INF] Request starting HTTP/1.1 GET http://localhost:64797/   (ca22a1cb)
2019-07-11T20:22:08.8284695-03:00 0HLO6AO96OR1J:00000003 [INF] Executing action method "AVP.Controllers.ErrorsController.Error (AVP)" with arguments (["404"]) - ModelState is Valid (ba7f4ac2)
2019-07-11T20:22:08.8348763-03:00 0HLO6AO96OR1J:00000003 [INF] Executing ObjectResult, writing value "Microsoft.AspNetCore.Mvc.ControllerContext". (4e968210)
2019-07-11T20:22:08.8437775-03:00 0HLO6AO96OR1J:00000003 [INF] Executed action "AVP.Controllers.ErrorsController.Error (AVP)" in 15.5622ms (afa2e885)
2019-07-11T20:22:08.8526260-03:00 0HLO6AO96OR1J:00000003 [INF] Request finished in 63.0038ms 404 application/json; charset=utf-8 (791a596a)
2019-07-11T20:22:14.5159767-03:00 0HLO6AO96OR1K:00000001 [INF] Request starting HTTP/1.1 GET http://localhost:64797/   (ca22a1cb)
2019-07-11T20:22:14.5269572-03:00 0HLO6AO96OR1K:00000001 [INF] Executing action method "AVP.Controllers.ErrorsController.Error (AVP)" with arguments (["404"]) - ModelState is Valid (ba7f4ac2)
2019-07-11T20:22:14.5356519-03:00 0HLO6AO96OR1K:00000001 [INF] Executing ObjectResult, writing value "Microsoft.AspNetCore.Mvc.ControllerContext". (4e968210)
2019-07-11T20:22:14.6039792-03:00 0HLO6AO96OR1K:00000001 [INF] Executed action "AVP.Controllers.ErrorsController.Error (AVP)" in 19.2982ms (afa2e885)
2019-07-11T20:22:14.6789729-03:00 0HLO6AO96OR1K:00000001 [INF] Request finished in 151.935ms 404 application/json; charset=utf-8 (791a596a)
2019-07-11T20:22:18.0523807-03:00 0HLO6AO96OR1K:00000002 [INF] Request starting HTTP/1.1 GET http://localhost:64797/Api/Setor   (ca22a1cb)
2019-07-11T20:22:18.0797970-03:00 0HLO6AO96OR1K:00000002 [INF] Executing action method "AVP.Controllers.ErrorsController.Error (AVP)" with arguments (["404"]) - ModelState is Valid (ba7f4ac2)
2019-07-11T20:22:18.1106463-03:00 0HLO6AO96OR1K:00000002 [INF] Executing ObjectResult, writing value "Microsoft.AspNetCore.Mvc.ControllerContext". (4e968210)
2019-07-11T20:22:18.2019878-03:00 0HLO6AO96OR1K:00000002 [INF] Executed action "AVP.Controllers.ErrorsController.Error (AVP)" in 58.0363ms (afa2e885)
2019-07-11T20:22:18.2758909-03:00 0HLO6AO96OR1K:00000002 [INF] Request finished in 184.1468ms 404 application/json; charset=utf-8 (791a596a)
2019-07-11T20:22:39.0112259-03:00 0HLO6AO96OR1N:00000001 [INF] Request starting HTTP/1.1 GET http://localhost:64797/Api/Se   (ca22a1cb)
2019-07-11T20:22:42.0635221-03:00 0HLO6AO96OR1N:00000001 [INF] Executing action method "AVP.Controllers.SetorController.Get (AVP)" with arguments (null) - ModelState is Valid (ba7f4ac2)
2019-07-11T20:44:08.3243674-03:00  [FTL] Unable to start Kestrel. (fc6a528d)
System.InvalidOperationException: A path base can only be configured using IApplicationBuilder.UsePathBase().
   at Microsoft.AspNetCore.Server.Kestrel.Core.Internal.AddressBinder.BindAddressAsync(String address, AddressBindContext context)
   at Microsoft.AspNetCore.Server.Kestrel.Core.Internal.AddressBinder.AddressesStrategy.BindAsync(AddressBindContext context)
   at Microsoft.AspNetCore.Server.Kestrel.Core.Internal.AddressBinder.BindAsync(IServerAddressesFeature addresses, List`1 listenOptions, ILogger logger, Func`2 createBinding)
   at Microsoft.AspNetCore.Server.Kestrel.Core.KestrelServer.StartAsync[TContext](IHttpApplication`1 application, CancellationToken cancellationToken)
2019-07-11T20:45:52.8226715-03:00 0HLO6B7HCVFD1:00000001 [INF] Request starting HTTP/1.1 GET http://localhost:64797/   (ca22a1cb)
2019-07-11T20:45:56.7734840-03:00 0HLO6B7HCVFD1:00000001 [INF] Executing action method "AVP.Controllers.ErrorsController.Error (AVP)" with arguments (["404"]) - ModelState is Valid (ba7f4ac2)
2019-07-11T20:45:57.4431139-03:00 0HLO6B7HCVFD1:00000001 [INF] Executing ObjectResult, writing value "Microsoft.AspNetCore.Mvc.ControllerContext". (4e968210)
2019-07-11T20:45:59.0396577-03:00 0HLO6B7HCVFD1:00000001 [INF] Executed action "AVP.Controllers.ErrorsController.Error (AVP)" in 3289.0706ms (afa2e885)
2019-07-11T20:45:59.0637912-03:00 0HLO6B7HCVFD1:00000001 [INF] Request finished in 7654.1385ms 404 application/json; charset=utf-8 (791a596a)
2019-07-11T20:46:04.4517284-03:00 0HLO6B7HCVFD4:00000001 [INF] Request starting HTTP/1.1 GET http://localhost:64797/api/setor   (ca22a1cb)
2019-07-11T20:46:10.2122526-03:00 0HLO6B7HCVFD4:00000001 [INF] Executing action method "AVP.Controllers.SetorController.Get (AVP)" with arguments (null) - ModelState is Valid (ba7f4ac2)
2019-07-11T20:47:27.7906142-03:00 0HLO6B7HCVFD4:00000001 [INF] Executed action "AVP.Controllers.SetorController.Get (AVP)" in 83203.7716ms (afa2e885)
2019-07-11T20:47:27.8853539-03:00 0HLO6B7HCVFD4:00000001 [ERR] An unhandled exception has occurred: Nome de objeto '_setores' inválido. (47d17a34)
System.Data.SqlClient.SqlException (0x80131904): Nome de objeto '_setores' inválido.
   at System.Data.SqlClient.SqlConnection.OnError(SqlException exception, Boolean breakConnection, Action`1 wrapCloseInAction)
   at System.Data.SqlClient.TdsParser.ThrowExceptionAndWarning(TdsParserStateObject stateObj, Boolean callerHasConnectionLock, Boolean asyncClose)
   at System.Data.SqlClient.TdsParser.TryRun(RunBehavior runBehavior, SqlCommand cmdHandler, SqlDataReader dataStream, BulkCopySimpleResultSet bulkCopyHandler, TdsParserStateObject stateObj, Boolean& dataReady)
   at System.Data.SqlClient.SqlDataReader.TryConsumeMetaData()
   at System.Data.SqlClient.SqlDataReader.get_MetaData()
   at System.Data.SqlClient.SqlCommand.FinishExecuteReader(SqlDataReader ds, RunBehavior runBehavior, String resetOptionsString)
   at System.Data.SqlClient.SqlCommand.RunExecuteReaderTds(CommandBehavior cmdBehavior, RunBehavior runBehavior, Boolean returnStream, Boolean async, Int32 timeout, Task& task, Boolean asyncWrite, SqlDataReader ds)
   at System.Data.SqlClient.SqlCommand.ExecuteReader(CommandBehavior behavior)
   at Microsoft.EntityFrameworkCore.Storage.Internal.RelationalCommand.Execute(IRelationalConnection connection, DbCommandMethod executeMethod, IReadOnlyDictionary`2 parameterValues)
   at Microsoft.EntityFrameworkCore.Storage.Internal.RelationalCommand.ExecuteReader(IRelationalConnection connection, IReadOnlyDictionary`2 parameterValues)
   at Microsoft.EntityFrameworkCore.Query.Internal.QueryingEnumerable`1.Enumerator.BufferlessMoveNext(DbContext _, Boolean buffer)
   at Microsoft.EntityFrameworkCore.SqlServer.Storage.Internal.SqlServerExecutionStrategy.Execute[TState,TResult](TState state, Func`3 operation, Func`3 verifySucceeded)
   at Microsoft.EntityFrameworkCore.Query.Internal.QueryingEnumerable`1.Enumerator.MoveNext()
   at Microsoft.EntityFrameworkCore.Query.Internal.LinqOperatorProvider._TrackEntities[TOut,TIn](IEnumerable`1 results, QueryContext queryContext, IList`1 entityTrackingInfos, IList`1 entityAccessors)+MoveNext()
   at Microsoft.EntityFrameworkCore.Query.Internal.LinqOperatorProvider.ExceptionInterceptor`1.EnumeratorExceptionInterceptor.MoveNext()
   at System.Collections.Generic.List`1.AddEnumerable(IEnumerable`1 enumerable)
   at System.Linq.Enumerable.ToList[TSource](IEnumerable`1 source)
   at AVP.data.Repositories.SetorRepository.GetAll() in C:\Users\Marcos\Documents\AVP\AVP\AVP.data\Repositories\SetorRepository.cs:line 26
   at AVP.Controllers.SetorController.Get() in C:\Users\Marcos\Documents\AVP\AVP\AVP\Controllers\SetorController.cs:line 31
   at lambda_method(Closure , Object , Object[] )
   at Microsoft.AspNetCore.Mvc.Internal.ControllerActionInvoker.InvokeActionMethodAsync()
   at Microsoft.AspNetCore.Mvc.Internal.ControllerActionInvoker.InvokeNextActionFilterAsync()
   at Microsoft.AspNetCore.Mvc.Internal.ControllerActionInvoker.Rethrow(ActionExecutedContext context)
   at Microsoft.AspNetCore.Mvc.Internal.ControllerActionInvoker.Next(State& next, Scope& scope, Object& state, Boolean& isCompleted)
   at Microsoft.AspNetCore.Mvc.Internal.ControllerActionInvoker.InvokeInnerFilterAsync()
   at Microsoft.AspNetCore.Mvc.Internal.ResourceInvoker.InvokeNextResourceFilter()
   at Microsoft.AspNetCore.Mvc.Internal.ResourceInvoker.Rethrow(ResourceExecutedContext context)
   at Microsoft.AspNetCore.Mvc.Internal.ResourceInvoker.Next(State& next, Scope& scope, Object& state, Boolean& isCompleted)
   at Microsoft.AspNetCore.Mvc.Internal.ResourceInvoker.InvokeFilterPipelineAsync()
   at Microsoft.AspNetCore.Mvc.Internal.ResourceInvoker.InvokeAsync()
   at Microsoft.AspNetCore.Builder.RouterMiddleware.Invoke(HttpContext httpContext)
   at Microsoft.AspNetCore.Diagnostics.StatusCodePagesMiddleware.Invoke(HttpContext context)
   at Microsoft.AspNetCore.Diagnostics.ExceptionHandlerMiddleware.Invoke(HttpContext context)
ClientConnectionId:b0eef875-beed-46be-a26b-28fbf8e64717
Error Number:208,State:1,Class:16
2019-07-11T20:47:27.9513351-03:00 0HLO6B7HCVFD4:00000001 [INF] Executing action method "AVP.Controllers.ErrorsController.Error (AVP)" with arguments (["500"]) - ModelState is Valid (ba7f4ac2)
2019-07-11T20:47:36.0934113-03:00 0HLO6B7HCVFD4:00000001 [INF] Executing ObjectResult, writing value "Microsoft.AspNetCore.Mvc.ControllerContext". (4e968210)
2019-07-11T20:47:36.5311335-03:00 0HLO6B7HCVFD4:00000001 [INF] Executed action "AVP.Controllers.ErrorsController.Error (AVP)" in 8495.5118ms (afa2e885)
2019-07-11T20:47:36.6579355-03:00 0HLO6B7HCVFD4:00000001 [INF] Request finished in 92187.9498ms 500 application/json; charset=utf-8 (791a596a)
2019-07-11T20:48:05.0031874-03:00 0HLO6B7HCVFD6:00000001 [INF] Request starting HTTP/1.1 GET http://localhost:64797/api/setor   (ca22a1cb)
2019-07-11T20:48:05.0490906-03:00 0HLO6B7HCVFD6:00000001 [INF] Executing action method "AVP.Controllers.SetorController.Get (AVP)" with arguments (null) - ModelState is Valid (ba7f4ac2)
2019-07-11T20:48:19.8151290-03:00 0HLO6B7HCVFD6:00000001 [INF] Executed action "AVP.Controllers.SetorController.Get (AVP)" in 14710.9987ms (afa2e885)
2019-07-11T20:48:19.8767524-03:00 0HLO6B7HCVFD6:00000001 [ERR] An unhandled exception has occurred: Nome de objeto '_setores' inválido. (47d17a34)
System.Data.SqlClient.SqlException (0x80131904): Nome de objeto '_setores' inválido.
   at System.Data.SqlClient.SqlConnection.OnError(SqlException exception, Boolean breakConnection, Action`1 wrapCloseInAction)
   at System.Data.SqlClient.TdsParser.ThrowExceptionAndWarning(TdsParserStateObject stateObj, Boolean callerHasConnectionLock, Boolean asyncClose)
   at System.Data.SqlClient.TdsParser.TryRun(RunBehavior runBehavior, SqlCommand cmdHandler, SqlDataReader dataStream, BulkCopySimpleResultSet bulkCopyHandler, TdsParserStateObject stateObj, Boolean& dataReady)
   at System.Data.SqlClient.SqlDataReader.TryConsumeMetaData()
   at System.Data.SqlClient.SqlDataReader.get_MetaData()
   at System.Data.SqlClient.SqlCommand.FinishExecuteReader(SqlDataReader ds, RunBehavior runBehavior, String resetOptionsString)
   at System.Data.SqlClient.SqlCommand.RunExecuteReaderTds(CommandBehavior cmdBehavior, RunBehavior runBehavior, Boolean returnStream, Boolean async, Int32 timeout, Task& task, Boolean asyncWrite, SqlDataReader ds)
   at System.Data.SqlClient.SqlCommand.ExecuteReader(CommandBehavior behavior)
   at Microsoft.EntityFrameworkCore.Storage.Internal.RelationalCommand.Execute(IRelationalConnection connection, DbCommandMethod executeMethod, IReadOnlyDictionary`2 parameterValues)
   at Microsoft.EntityFrameworkCore.Storage.Internal.RelationalCommand.ExecuteReader(IRelationalConnection connection, IReadOnlyDictionary`2 parameterValues)
   at Microsoft.EntityFrameworkCore.Query.Internal.QueryingEnumerable`1.Enumerator.BufferlessMoveNext(DbContext _, Boolean buffer)
   at Microsoft.EntityFrameworkCore.SqlServer.Storage.Internal.SqlServerExecutionStrategy.Execute[TState,TResult](TState state, Func`3 operation, Func`3 verifySucceeded)
   at Microsoft.EntityFrameworkCore.Query.Internal.QueryingEnumerable`1.Enumerator.MoveNext()
   at Microsoft.EntityFrameworkCore.Query.Internal.LinqOperatorProvider._TrackEntities[TOut,TIn](IEnumerable`1 results, QueryContext queryContext, IList`1 entityTrackingInfos, IList`1 entityAccessors)+MoveNext()
   at Microsoft.EntityFrameworkCore.Query.Internal.LinqOperatorProvider.ExceptionInterceptor`1.EnumeratorExceptionInterceptor.MoveNext()
   at System.Collections.Generic.List`1.AddEnumerable(IEnumerable`1 enumerable)
   at System.Linq.Enumerable.ToList[TSource](IEnumerable`1 source)
   at AVP.data.Repositories.SetorRepository.GetAll() in C:\Users\Marcos\Documents\AVP\AVP\AVP.data\Repositories\SetorRepository.cs:line 26
   at AVP.Controllers.SetorController.Get() in C:\Users\Marcos\Documents\AVP\AVP\AVP\Controllers\SetorController.cs:line 31
   at lambda_method(Closure , Object , Object[] )
   at Microsoft.AspNetCore.Mvc.Internal.ControllerActionInvoker.InvokeActionMethodAsync()
   at Microsoft.AspNetCore.Mvc.Internal.ControllerActionInvoker.InvokeNextActionFilterAsync()
   at Microsoft.AspNetCore.Mvc.Internal.ControllerActionInvoker.Rethrow(ActionExecutedContext context)
   at Microsoft.AspNetCore.Mvc.Internal.ControllerActionInvoker.Next(State& next, Scope& scope, Object& state, Boolean& isCompleted)
   at Microsoft.AspNetCore.Mvc.Internal.ControllerActionInvoker.InvokeInnerFilterAsync()
   at Microsoft.AspNetCore.Mvc.Internal.ResourceInvoker.InvokeNextResourceFilter()
   at Microsoft.AspNetCore.Mvc.Internal.ResourceInvoker.Rethrow(ResourceExecutedContext context)
   at Microsoft.AspNetCore.Mvc.Internal.ResourceInvoker.Next(State& next, Scope& scope, Object& state, Boolean& isCompleted)
   at Microsoft.AspNetCore.Mvc.Internal.ResourceInvoker.InvokeFilterPipelineAsync()
   at Microsoft.AspNetCore.Mvc.Internal.ResourceInvoker.InvokeAsync()
   at Microsoft.AspNetCore.Builder.RouterMiddleware.Invoke(HttpContext httpContext)
   at Microsoft.AspNetCore.Diagnostics.StatusCodePagesMiddleware.Invoke(HttpContext context)
   at Microsoft.AspNetCore.Diagnostics.ExceptionHandlerMiddleware.Invoke(HttpContext context)
ClientConnectionId:b0eef875-beed-46be-a26b-28fbf8e64717
Error Number:208,State:1,Class:16
2019-07-11T20:48:20.0001267-03:00 0HLO6B7HCVFD6:00000001 [INF] Executing action method "AVP.Controllers.ErrorsController.Error (AVP)" with arguments (["500"]) - ModelState is Valid (ba7f4ac2)
2019-07-11T20:48:20.0347487-03:00 0HLO6B7HCVFD6:00000001 [INF] Executing ObjectResult, writing value "Microsoft.AspNetCore.Mvc.ControllerContext". (4e968210)
2019-07-11T20:48:20.1420736-03:00 0HLO6B7HCVFD6:00000001 [INF] Executed action "AVP.Controllers.ErrorsController.Error (AVP)" in 142.8113ms (afa2e885)
2019-07-11T20:48:20.5742498-03:00 0HLO6B7HCVFD6:00000001 [INF] Request finished in 15211.556ms 500 application/json; charset=utf-8 (791a596a)
2019-07-11T20:48:22.1875842-03:00 0HLO6B7HCVFD8:00000001 [INF] Request starting HTTP/1.1 GET http://localhost:64797/api/setor   (ca22a1cb)
2019-07-11T20:48:22.2032768-03:00 0HLO6B7HCVFD8:00000001 [INF] Executing action method "AVP.Controllers.SetorController.Get (AVP)" with arguments (null) - ModelState is Valid (ba7f4ac2)
2019-07-11T20:49:03.9923236-03:00 0HLO6B7HCVFD8:00000001 [INF] Executed action "AVP.Controllers.SetorController.Get (AVP)" in 41777.6931ms (afa2e885)
2019-07-11T20:49:04.0782617-03:00 0HLO6B7HCVFD8:00000001 [ERR] An unhandled exception has occurred: Nome de objeto '_setores' inválido. (47d17a34)
System.Data.SqlClient.SqlException (0x80131904): Nome de objeto '_setores' inválido.
   at System.Data.SqlClient.SqlConnection.OnError(SqlException exception, Boolean breakConnection, Action`1 wrapCloseInAction)
   at System.Data.SqlClient.TdsParser.ThrowExceptionAndWarning(TdsParserStateObject stateObj, Boolean callerHasConnectionLock, Boolean asyncClose)
   at System.Data.SqlClient.TdsParser.TryRun(RunBehavior runBehavior, SqlCommand cmdHandler, SqlDataReader dataStream, BulkCopySimpleResultSet bulkCopyHandler, TdsParserStateObject stateObj, Boolean& dataReady)
   at System.Data.SqlClient.SqlDataReader.TryConsumeMetaData()
   at System.Data.SqlClient.SqlDataReader.get_MetaData()
   at System.Data.SqlClient.SqlCommand.FinishExecuteReader(SqlDataReader ds, RunBehavior runBehavior, String resetOptionsString)
   at System.Data.SqlClient.SqlCommand.RunExecuteReaderTds(CommandBehavior cmdBehavior, RunBehavior runBehavior, Boolean returnStream, Boolean async, Int32 timeout, Task& task, Boolean asyncWrite, SqlDataReader ds)
   at System.Data.SqlClient.SqlCommand.ExecuteReader(CommandBehavior behavior)
   at Microsoft.EntityFrameworkCore.Storage.Internal.RelationalCommand.Execute(IRelationalConnection connection, DbCommandMethod executeMethod, IReadOnlyDictionary`2 parameterValues)
   at Microsoft.EntityFrameworkCore.Storage.Internal.RelationalCommand.ExecuteReader(IRelationalConnection connection, IReadOnlyDictionary`2 parameterValues)
   at Microsoft.EntityFrameworkCore.Query.Internal.QueryingEnumerable`1.Enumerator.BufferlessMoveNext(DbContext _, Boolean buffer)
   at Microsoft.EntityFrameworkCore.SqlServer.Storage.Internal.SqlServerExecutionStrategy.Execute[TState,TResult](TState state, Func`3 operation, Func`3 verifySucceeded)
   at Microsoft.EntityFrameworkCore.Query.Internal.QueryingEnumerable`1.Enumerator.MoveNext()
   at Microsoft.EntityFrameworkCore.Query.Internal.LinqOperatorProvider._TrackEntities[TOut,TIn](IEnumerable`1 results, QueryContext queryContext, IList`1 entityTrackingInfos, IList`1 entityAccessors)+MoveNext()
   at Microsoft.EntityFrameworkCore.Query.Internal.LinqOperatorProvider.ExceptionInterceptor`1.EnumeratorExceptionInterceptor.MoveNext()
   at System.Collections.Generic.List`1.AddEnumerable(IEnumerable`1 enumerable)
   at System.Linq.Enumerable.ToList[TSource](IEnumerable`1 source)
   at AVP.data.Repositories.SetorRepository.GetAll() in C:\Users\Marcos\Documents\AVP\AVP\AVP.data\Repositories\SetorRepository.cs:line 26
   at AVP.Controllers.SetorController.Get() in C:\Users\Marcos\Documents\AVP\AVP\AVP\Controllers\SetorController.cs:line 31
   at lambda_method(Closure , Object , Object[] )
   at Microsoft.AspNetCore.Mvc.Internal.ControllerActionInvoker.InvokeActionMethodAsync()
   at Microsoft.AspNetCore.Mvc.Internal.ControllerActionInvoker.InvokeNextActionFilterAsync()
   at Microsoft.AspNetCore.Mvc.Internal.ControllerActionInvoker.Rethrow(ActionExecutedContext context)
   at Microsoft.AspNetCore.Mvc.Internal.ControllerActionInvoker.Next(State& next, Scope& scope, Object& state, Boolean& isCompleted)
   at Microsoft.AspNetCore.Mvc.Internal.ControllerActionInvoker.InvokeInnerFilterAsync()
   at Microsoft.AspNetCore.Mvc.Internal.ResourceInvoker.InvokeNextResourceFilter()
   at Microsoft.AspNetCore.Mvc.Internal.ResourceInvoker.Rethrow(ResourceExecutedContext context)
   at Microsoft.AspNetCore.Mvc.Internal.ResourceInvoker.Next(State& next, Scope& scope, Object& state, Boolean& isCompleted)
   at Microsoft.AspNetCore.Mvc.Internal.ResourceInvoker.InvokeFilterPipelineAsync()
   at Microsoft.AspNetCore.Mvc.Internal.ResourceInvoker.InvokeAsync()
   at Microsoft.AspNetCore.Builder.RouterMiddleware.Invoke(HttpContext httpContext)
   at Microsoft.AspNetCore.Diagnostics.StatusCodePagesMiddleware.Invoke(HttpContext context)
   at Microsoft.AspNetCore.Diagnostics.ExceptionHandlerMiddleware.Invoke(HttpContext context)
ClientConnectionId:b0eef875-beed-46be-a26b-28fbf8e64717
Error Number:208,State:1,Class:16
2019-07-11T20:49:04.1079846-03:00 0HLO6B7HCVFD8:00000001 [INF] Executing action method "AVP.Controllers.ErrorsController.Error (AVP)" with arguments (["500"]) - ModelState is Valid (ba7f4ac2)
2019-07-11T20:49:04.2089734-03:00 0HLO6B7HCVFD8:00000001 [INF] Executing ObjectResult, writing value "Microsoft.AspNetCore.Mvc.ControllerContext". (4e968210)
2019-07-11T20:49:04.3036577-03:00 0HLO6B7HCVFD8:00000001 [INF] Executed action "AVP.Controllers.ErrorsController.Error (AVP)" in 177.7885ms (afa2e885)
2019-07-11T20:49:04.6869947-03:00 0HLO6B7HCVFD8:00000001 [INF] Request finished in 42308.3426ms 500 application/json; charset=utf-8 (791a596a)
2019-07-11T20:49:10.2839786-03:00 0HLO6B7HCVFDA:00000001 [INF] Request starting HTTP/1.1 GET http://localhost:64797/api/servico   (ca22a1cb)
2019-07-11T20:49:13.3853120-03:00 0HLO6B7HCVFDA:00000001 [INF] Executing action method "AVP.Controllers.ServicoController.Get (AVP)" with arguments (null) - ModelState is Valid (ba7f4ac2)
2019-07-11T20:49:15.1242392-03:00 0HLO6B7HCVFDA:00000001 [INF] Executing ObjectResult, writing value "Microsoft.AspNetCore.Mvc.ControllerContext". (4e968210)
2019-07-11T20:49:15.6456361-03:00 0HLO6B7HCVFDA:00000001 [INF] Executed action "AVP.Controllers.ServicoController.Get (AVP)" in 4901.8427ms (afa2e885)
2019-07-11T20:49:15.7844825-03:00 0HLO6B7HCVFDA:00000001 [INF] Request finished in 5405.3674ms 200 application/json; charset=utf-8 (791a596a)
2019-07-11T20:49:29.4383278-03:00 0HLO6B7HCVFDC:00000001 [INF] Request starting HTTP/1.1 GET http://localhost:64797/api/servico   (ca22a1cb)
2019-07-11T20:49:30.6337936-03:00 0HLO6B7HCVFDC:00000001 [INF] Executing action method "AVP.Controllers.ServicoController.Get (AVP)" with arguments (null) - ModelState is Valid (ba7f4ac2)
2019-07-11T20:50:34.5456727-03:00  [WRN] Heartbeat took longer than "00:00:01" at "07/11/2019 23:50:31 +00:00". (439152bf)
2019-07-11T20:50:34.5460929-03:00 0HLO6B7HCVFDC:00000001 [INF] Executing ObjectResult, writing value "Microsoft.AspNetCore.Mvc.ControllerContext". (4e968210)
2019-07-11T20:50:34.7135888-03:00 0HLO6B7HCVFDC:00000001 [INF] Executed action "AVP.Controllers.ServicoController.Get (AVP)" in 65101.8021ms (afa2e885)
2019-07-11T20:50:35.3973542-03:00 0HLO6B7HCVFDC:00000001 [INF] Request finished in 65339.8233ms 200 application/json; charset=utf-8 (791a596a)
2019-07-11T20:50:42.5518776-03:00 0HLO6B7HCVFDD:00000001 [INF] Request starting HTTP/1.1 GET http://localhost:64797/api/setor   (ca22a1cb)
2019-07-11T20:50:42.5685866-03:00 0HLO6B7HCVFDD:00000001 [INF] Executing action method "AVP.Controllers.SetorController.Get (AVP)" with arguments (null) - ModelState is Valid (ba7f4ac2)
2019-07-11T20:52:48.4220109-03:00 0HLO6BBFDHFE7:00000001 [INF] Request starting HTTP/1.1 GET http://localhost:64797/   (ca22a1cb)
2019-07-11T20:52:49.5155229-03:00 0HLO6BBFDHFE7:00000001 [INF] Executing action method "AVP.Controllers.ErrorsController.Error (AVP)" with arguments (["404"]) - ModelState is Valid (ba7f4ac2)
2019-07-11T20:52:49.6094233-03:00 0HLO6BBFDHFE7:00000001 [INF] Executing ObjectResult, writing value "Microsoft.AspNetCore.Mvc.ControllerContext". (4e968210)
2019-07-11T20:52:50.1133002-03:00 0HLO6BBFDHFE7:00000001 [INF] Executed action "AVP.Controllers.ErrorsController.Error (AVP)" in 609.6718ms (afa2e885)
2019-07-11T20:52:50.2849492-03:00 0HLO6BBFDHFE7:00000001 [INF] Request finished in 1834.603ms 404 application/json; charset=utf-8 (791a596a)
2019-07-11T20:53:08.4982427-03:00 0HLO6BBFDHFE9:00000001 [INF] Request starting HTTP/1.1 GET http://localhost:64797/api/setor   (ca22a1cb)
2019-07-11T20:53:08.9785736-03:00 0HLO6BBFDHFE9:00000001 [INF] Executing action method "AVP.Controllers.SetorController.Get (AVP)" with arguments (null) - ModelState is Valid (ba7f4ac2)
2019-07-11T20:53:15.2403271-03:00 0HLO6BBFDHFE9:00000001 [INF] Executing ObjectResult, writing value "Microsoft.AspNetCore.Mvc.ControllerContext". (4e968210)
2019-07-11T20:53:15.4303338-03:00 0HLO6BBFDHFE9:00000001 [INF] Executed action "AVP.Controllers.SetorController.Get (AVP)" in 6731.9126ms (afa2e885)
2019-07-11T20:53:15.4910914-03:00 0HLO6BBFDHFE9:00000001 [INF] Request finished in 6977.2096ms 200 application/json; charset=utf-8 (791a596a)
2019-07-11T22:41:03.0680692-03:00 0HLO6D7O61L9U:00000001 [INF] Request starting HTTP/1.1 GET http://localhost:64797/   (ca22a1cb)
2019-07-11T22:41:14.9692716-03:00 0HLO6D7O61L9U:00000001 [INF] Executing action method "AVP.Controllers.ErrorsController.Error (AVP)" with arguments (["404"]) - ModelState is Valid (ba7f4ac2)
2019-07-11T22:41:15.2599323-03:00 0HLO6D7O61L9U:00000001 [INF] Executing ObjectResult, writing value "Microsoft.AspNetCore.Mvc.ControllerContext". (4e968210)
2019-07-11T22:41:17.1369931-03:00 0HLO6D7O61L9U:00000001 [INF] Executed action "AVP.Controllers.ErrorsController.Error (AVP)" in 2525.0935ms (afa2e885)
2019-07-11T22:41:17.2028862-03:00 0HLO6D7O61L9U:00000001 [INF] Request finished in 17129.5536ms 404 application/json; charset=utf-8 (791a596a)
